#Opt	Id	Name	Type	IP	Offset	Binary
-	0x01	fsbl1-boot	Binary	none	0x0	tf-a-stm32mp157c-ya157c-512d-v2.stm32
-	0x03	ssbl-boot	Binary	none	0x0	u-boot.stm32
P	0x04	fsbl1	Binary	mmc0	0x00004400	arm-trusted-firmware/tf-a-stm32mp157c-100ask-512d-v1-trusted.stm32
P	0x05	fsbl2	Binary	mmc0	0x00044400	arm-trusted-firmware/tf-a-stm32mp157c-100ask-512d-v1-trusted.stm32
PD	0x06	ssbl	Binary	mmc0	0x00084400	bootloader/u-boot-stm32mp157c-100ask-512d-v1-trusted.stm32
P	0x21	boot	System	mmc0	0x00284400	st-image-bootfs-openstlinux-eglfs-100ask.ext4
P	0x22	vendorfs	FileSystem	mmc0	0x04284400	st-image-vendorfs-openstlinux-eglfs-100ask.ext4
P	0x23	rootfs	FileSystem	mmc0	0x05284400	100ask-image-qt-openstlinux-eglfs-100ask.ext4
P	0x24	userfs	FileSystem	mmc0	0xC5284400	st-image-userfs-openstlinux-eglfs-100ask.ext4
