
========================================================================

** ELF Header Information

    File Name: Objects\led_c.axf

    Machine class: ELFCLASS32 (32-bit)
    Data encoding: ELFDATA2LSB (Little endian)
    Header version: EV_CURRENT (Current version)
    Operating System ABI: none
    ABI Version: 0
    File Type: ET_EXEC (Executable) (2)
    Machine: EM_ARM (ARM)

    Image Entry point: Not specified
    Flags: EF_ARM_ABI_FLOAT_SOFT (0x05000200)

    ARM ELF revision: 5 (ABI version 2)

    Conforms to Soft float procedure-call standard

    Built with
    Component: ARM Compiler 5.06 update 6 (build 750) Tool: armasm [4d35ec]
    Component: ARM Compiler 5.06 update 6 (build 750) Tool: armlink [4d35ed]

    Header size: 52 bytes (0x34)
    Program header entry size: 32 bytes (0x20)
    Section header entry size: 40 bytes (0x28)

    Program header entries: 1
    Section header entries: 16

    Program header offset: 36732 (0x00008f7c)
    Section header offset: 36764 (0x00008f9c)

    Section header string table index: 15

========================================================================

** Program header #0 (PT_LOAD) [PF_X + PF_W + PF_R]
    Size : 1588 bytes (1500 bytes in file)
    Virtual address: 0x08000000 (Alignment 4)


========================================================================

** Section #1 'ER_IROM1' (SHT_PROGBITS) [SHF_ALLOC + SHF_EXECINSTR]
    Size   : 1492 bytes (alignment 4)
    Address: 0x08000000

    $d.realdata
    RESET
    __Vectors
        0x08000000:    20010000    ...     DCD    536936448
        0x08000004:    0800005d    ]...    DCD    134217821
        0x08000008:    00000000    ....    DCD    0
        0x0800000c:    080000f1    ....    DCD    134217969
        0x08000010:    00000000    ....    DCD    0
        0x08000014:    00000000    ....    DCD    0
        0x08000018:    08000095    ....    DCD    134217877
        0x0800001c:    00000000    ....    DCD    0
        0x08000020:    00000000    ....    DCD    0
        0x08000024:    00000000    ....    DCD    0
        0x08000028:    00000000    ....    DCD    0
        0x0800002c:    08000151    Q...    DCD    134218065
        0x08000030:    00000000    ....    DCD    0
        0x08000034:    00000000    ....    DCD    0
        0x08000038:    00000000    ....    DCD    0
        0x0800003c:    08000185    ....    DCD    134218117
        0x08000040:    00000000    ....    DCD    0
        0x08000044:    00000000    ....    DCD    0
        0x08000048:    00000000    ....    DCD    0
        0x0800004c:    00000000    ....    DCD    0
        0x08000050:    00000000    ....    DCD    0
        0x08000054:    00000000    ....    DCD    0
        0x08000058:    080000a1    ....    DCD    134217889
    $t
    .text
    Reset_Handler
        0x0800005c:    f000f8b0    ....    BL       SystemInit ; 0x80001c0
        0x08000060:    f000fa8e    ....    BL       uart_init ; 0x8000580
        0x08000064:    f000f8d2    ....    BL       UsageFaultInit ; 0x800020c
        0x08000068:    f04f0000    O...    MOV      r0,#0
        0x0800006c:    f04f3111    O..1    MOV      r1,#0x11111111
        0x08000070:    f04f3222    O."2    MOV      r2,#0x22222222
        0x08000074:    f04f3333    O.33    MOV      r3,#0x33333333
        0x08000078:    f04f3c44    O.D<    MOV      r12,#0x44444444
        0x0800007c:    f04f3e55    O.U>    MOV      lr,#0x55555555
    $d
        0x08000080:    ffffffff    ....    DCD    4294967295
    $t
        0x08000084:    df01        ..      SVC      #0x1 ; formerly SWI
        0x08000086:    f000f871    ..q.    BL       SysTickInit ; 0x800016c
        0x0800008a:    f000f851    ..Q.    BL       LedInit ; 0x8000130
        0x0800008e:    b662        b.      CPSIE    i
        0x08000090:    4802        .H      LDR      r0,[pc,#8] ; [0x800009c] = 0x8000399
        0x08000092:    4780        .G      BLX      r0
    UsageFault_Handler_asm
        0x08000094:    4668        hF      MOV      r0,sp
        0x08000096:    f000b8c1    ....    B.W      UsageFault_Handler ; 0x800021c
        0x0800009a:    bf00        ..      NOP      
    $d
        0x0800009c:    08000399    ....    DCD    134218649
    $t
    i.EXTI0_IRQHandler
    EXTI0_IRQHandler
        0x080000a0:    b510        ..      PUSH     {r4,lr}
        0x080000a2:    4c09        .L      LDR      r4,[pc,#36] ; [0x80000c8] = 0x40010808
        0x080000a4:    7820         x      LDRB     r0,[r4,#0]
        0x080000a6:    f0000001    ....    AND      r0,r0,#1
        0x080000aa:    b918        ..      CBNZ     r0,0x80000b4 ; EXTI0_IRQHandler + 20
        0x080000ac:    a007        ..      ADR      r0,{pc}+0x20 ; 0x80000cc
        0x080000ae:    f000fa5b    ..[.    BL       puts ; 0x8000568
        0x080000b2:    e002        ..      B        0x80000ba ; EXTI0_IRQHandler + 26
        0x080000b4:    a009        ..      ADR      r0,{pc}+0x28 ; 0x80000dc
        0x080000b6:    f000fa57    ..W.    BL       puts ; 0x8000568
        0x080000ba:    2000        .       MOVS     r0,#0
        0x080000bc:    f000f910    ....    BL       exti_clear_int ; 0x80002e0
        0x080000c0:    2006        .       MOVS     r0,#6
        0x080000c2:    f000f9fd    ....    BL       nvic_clear_int ; 0x80004c0
        0x080000c6:    bd10        ..      POP      {r4,pc}
    $d
        0x080000c8:    40010808    ...@    DCD    1073809416
        0x080000cc:    3159454b    KEY1    DCD    827934027
        0x080000d0:    65727020     pre    DCD    1701998624
        0x080000d4:    64657373    ssed    DCD    1684370291
        0x080000d8:    000d0a21    !...    DCD    854561
        0x080000dc:    3159454b    KEY1    DCD    827934027
        0x080000e0:    6c657220     rel    DCD    1818587680
        0x080000e4:    65736165    ease    DCD    1702060389
        0x080000e8:    0d0a2164    d!..    DCD    218767716
        0x080000ec:    00000000    ....    DCD    0
    $t
    i.HardFault_Handler
    HardFault_Handler
        0x080000f0:    a002        ..      ADR      r0,{pc}+0xc ; 0x80000fc
        0x080000f2:    f000fa39    ..9.    BL       puts ; 0x8000568
        0x080000f6:    bf00        ..      NOP      
        0x080000f8:    e7fe        ..      B        0x80000f8 ; HardFault_Handler + 8
    $d
        0x080000fa:    0000        ..      DCW    0
        0x080000fc:    64726148    Hard    DCD    1685217608
        0x08000100:    6c756146    Faul    DCD    1819631942
        0x08000104:    61485f74    t_Ha    DCD    1632132980
        0x08000108:    656c646e    ndle    DCD    1701602414
        0x0800010c:    000d0a72    r...    DCD    854642
    $t
    i.LedCtrl
    LedCtrl
        0x08000110:    4601        .F      MOV      r1,r0
        0x08000112:    4806        .H      LDR      r0,[pc,#24] ; [0x800012c] = 0x40010c0c
        0x08000114:    b121        !.      CBZ      r1,0x8000120 ; LedCtrl + 16
        0x08000116:    6802        .h      LDR      r2,[r0,#0]
        0x08000118:    f0220201    "...    BIC      r2,r2,#1
        0x0800011c:    6002        .`      STR      r2,[r0,#0]
        0x0800011e:    e003        ..      B        0x8000128 ; LedCtrl + 24
        0x08000120:    6802        .h      LDR      r2,[r0,#0]
        0x08000122:    f0420201    B...    ORR      r2,r2,#1
        0x08000126:    6002        .`      STR      r2,[r0,#0]
        0x08000128:    4770        pG      BX       lr
    $d
        0x0800012a:    0000        ..      DCW    0
        0x0800012c:    40010c0c    ...@    DCD    1073810444
    $t
    i.LedInit
    LedInit
        0x08000130:    4805        .H      LDR      r0,[pc,#20] ; [0x8000148] = 0x40021018
        0x08000132:    6801        .h      LDR      r1,[r0,#0]
        0x08000134:    f0410108    A...    ORR      r1,r1,#8
        0x08000138:    6001        .`      STR      r1,[r0,#0]
        0x0800013a:    4804        .H      LDR      r0,[pc,#16] ; [0x800014c] = 0x40010c00
        0x0800013c:    6801        .h      LDR      r1,[r0,#0]
        0x0800013e:    f0410101    A...    ORR      r1,r1,#1
        0x08000142:    6001        .`      STR      r1,[r0,#0]
        0x08000144:    4770        pG      BX       lr
    $d
        0x08000146:    0000        ..      DCW    0
        0x08000148:    40021018    ...@    DCD    1073877016
        0x0800014c:    40010c00    ...@    DCD    1073810432
    $t
    i.SVC_Handler
    SVC_Handler
        0x08000150:    b510        ..      PUSH     {r4,lr}
        0x08000152:    a002        ..      ADR      r0,{pc}+0xa ; 0x800015c
        0x08000154:    f000fa08    ....    BL       puts ; 0x8000568
        0x08000158:    bd10        ..      POP      {r4,pc}
    $d
        0x0800015a:    0000        ..      DCW    0
        0x0800015c:    5f435653    SVC_    DCD    1598248531
        0x08000160:    646e6148    Hand    DCD    1684955464
        0x08000164:    0a72656c    ler.    DCD    175269228
        0x08000168:    0000000d    ....    DCD    13
    $t
    i.SysTickInit
    SysTickInit
        0x0800016c:    4803        .H      LDR      r0,[pc,#12] ; [0x800017c] = 0xe000e010
        0x0800016e:    4904        .I      LDR      r1,[pc,#16] ; [0x8000180] = 0x7a1200
        0x08000170:    6081        .`      STR      r1,[r0,#8]
        0x08000172:    6041        A`      STR      r1,[r0,#4]
        0x08000174:    2107        .!      MOVS     r1,#7
        0x08000176:    6001        .`      STR      r1,[r0,#0]
        0x08000178:    4770        pG      BX       lr
    $d
        0x0800017a:    0000        ..      DCW    0
        0x0800017c:    e000e010    ....    DCD    3758153744
        0x08000180:    007a1200    ..z.    DCD    8000000
    $t
    i.SysTick_Handler
    SysTick_Handler
        0x08000184:    b510        ..      PUSH     {r4,lr}
        0x08000186:    4c0c        .L      LDR      r4,[pc,#48] ; [0x80001b8] = 0xe000ed00
        0x08000188:    480c        .H      LDR      r0,[pc,#48] ; [0x80001bc] = 0x20000004
        0x0800018a:    6800        .h      LDR      r0,[r0,#0]
        0x0800018c:    b118        ..      CBZ      r0,0x8000196 ; SysTick_Handler + 18
        0x0800018e:    2000        .       MOVS     r0,#0
        0x08000190:    f7ffffbe    ....    BL       LedCtrl ; 0x8000110
        0x08000194:    e002        ..      B        0x800019c ; SysTick_Handler + 24
        0x08000196:    2001        .       MOVS     r0,#1
        0x08000198:    f7ffffba    ....    BL       LedCtrl ; 0x8000110
        0x0800019c:    4807        .H      LDR      r0,[pc,#28] ; [0x80001bc] = 0x20000004
        0x0800019e:    6800        .h      LDR      r0,[r0,#0]
        0x080001a0:    b908        ..      CBNZ     r0,0x80001a6 ; SysTick_Handler + 34
        0x080001a2:    2001        .       MOVS     r0,#1
        0x080001a4:    e000        ..      B        0x80001a8 ; SysTick_Handler + 36
        0x080001a6:    2000        .       MOVS     r0,#0
        0x080001a8:    4904        .I      LDR      r1,[pc,#16] ; [0x80001bc] = 0x20000004
        0x080001aa:    6008        .`      STR      r0,[r1,#0]
        0x080001ac:    6860        `h      LDR      r0,[r4,#4]
        0x080001ae:    f0407000    @..p    ORR      r0,r0,#0x2000000
        0x080001b2:    6060        ``      STR      r0,[r4,#4]
        0x080001b4:    bd10        ..      POP      {r4,pc}
    $d
        0x080001b6:    0000        ..      DCW    0
        0x080001b8:    e000ed00    ....    DCD    3758157056
        0x080001bc:    20000004    ...     DCD    536870916
    $t
    i.SystemInit
    SystemInit
        0x080001c0:    b510        ..      PUSH     {r4,lr}
        0x080001c2:    480a        .H      LDR      r0,[pc,#40] ; [0x80001ec] = 0x8000000
        0x080001c4:    490a        .I      LDR      r1,[pc,#40] ; [0x80001f0] = 0x8000000
        0x080001c6:    4288        .B      CMP      r0,r1
        0x080001c8:    d002        ..      BEQ      0x80001d0 ; SystemInit + 16
        0x080001ca:    4a0a        .J      LDR      r2,[pc,#40] ; [0x80001f4] = 0x5d4
        0x080001cc:    f000f8cc    ....    BL       memcpy ; 0x8000368
        0x080001d0:    4809        .H      LDR      r0,[pc,#36] ; [0x80001f8] = 0x20000000
        0x080001d2:    490a        .I      LDR      r1,[pc,#40] ; [0x80001fc] = 0x80005d4
        0x080001d4:    4288        .B      CMP      r0,r1
        0x080001d6:    d002        ..      BEQ      0x80001de ; SystemInit + 30
        0x080001d8:    4a09        .J      LDR      r2,[pc,#36] ; [0x8000200] = 0x8
        0x080001da:    f000f8c5    ....    BL       memcpy ; 0x8000368
        0x080001de:    4a09        .J      LDR      r2,[pc,#36] ; [0x8000204] = 0x58
        0x080001e0:    2100        .!      MOVS     r1,#0
        0x080001e2:    4809        .H      LDR      r0,[pc,#36] ; [0x8000208] = 0x20000008
        0x080001e4:    f000f8cd    ....    BL       memset ; 0x8000382
        0x080001e8:    bd10        ..      POP      {r4,pc}
    $d
        0x080001ea:    0000        ..      DCW    0
        0x080001ec:    08000000    ....    DCD    134217728
        0x080001f0:    08000000    ....    DCD    134217728
        0x080001f4:    000005d4    ....    DCD    1492
        0x080001f8:    20000000    ...     DCD    536870912
        0x080001fc:    080005d4    ....    DCD    134219220
        0x08000200:    00000008    ....    DCD    8
        0x08000204:    00000058    X...    DCD    88
        0x08000208:    20000008    ...     DCD    536870920
    $t
    i.UsageFaultInit
    UsageFaultInit
        0x0800020c:    4802        .H      LDR      r0,[pc,#8] ; [0x8000218] = 0xe000ed00
        0x0800020e:    6a41        Aj      LDR      r1,[r0,#0x24]
        0x08000210:    f4412180    A..!    ORR      r1,r1,#0x40000
        0x08000214:    6241        Ab      STR      r1,[r0,#0x24]
        0x08000216:    4770        pG      BX       lr
    $d
        0x08000218:    e000ed00    ....    DCD    3758157056
    $t
    i.UsageFault_Handler
    UsageFault_Handler
        0x0800021c:    b570        p.      PUSH     {r4-r6,lr}
        0x0800021e:    4604        .F      MOV      r4,r0
        0x08000220:    4d14        .M      LDR      r5,[pc,#80] ; [0x8000274] = 0xe000ed00
        0x08000222:    a015        ..      ADR      r0,{pc}+0x56 ; 0x8000278
        0x08000224:    f000f9a0    ....    BL       puts ; 0x8000568
        0x08000228:    a019        ..      ADR      r0,{pc}+0x68 ; 0x8000290
        0x0800022a:    6821        !h      LDR      r1,[r4,#0]
        0x0800022c:    f000f95e    ..^.    BL       put_s_hex ; 0x80004ec
        0x08000230:    a019        ..      ADR      r0,{pc}+0x68 ; 0x8000298
        0x08000232:    6861        ah      LDR      r1,[r4,#4]
        0x08000234:    f000f95a    ..Z.    BL       put_s_hex ; 0x80004ec
        0x08000238:    a019        ..      ADR      r0,{pc}+0x68 ; 0x80002a0
        0x0800023a:    68a1        .h      LDR      r1,[r4,#8]
        0x0800023c:    f000f956    ..V.    BL       put_s_hex ; 0x80004ec
        0x08000240:    a019        ..      ADR      r0,{pc}+0x68 ; 0x80002a8
        0x08000242:    68e1        .h      LDR      r1,[r4,#0xc]
        0x08000244:    f000f952    ..R.    BL       put_s_hex ; 0x80004ec
        0x08000248:    a019        ..      ADR      r0,{pc}+0x68 ; 0x80002b0
        0x0800024a:    6921        !i      LDR      r1,[r4,#0x10]
        0x0800024c:    f000f94e    ..N.    BL       put_s_hex ; 0x80004ec
        0x08000250:    a019        ..      ADR      r0,{pc}+0x68 ; 0x80002b8
        0x08000252:    6961        ai      LDR      r1,[r4,#0x14]
        0x08000254:    f000f94a    ..J.    BL       put_s_hex ; 0x80004ec
        0x08000258:    a019        ..      ADR      r0,{pc}+0x68 ; 0x80002c0
        0x0800025a:    69a1        .i      LDR      r1,[r4,#0x18]
        0x0800025c:    f000f946    ..F.    BL       put_s_hex ; 0x80004ec
        0x08000260:    a019        ..      ADR      r0,{pc}+0x68 ; 0x80002c8
        0x08000262:    69e1        .i      LDR      r1,[r4,#0x1c]
        0x08000264:    f000f942    ..B.    BL       put_s_hex ; 0x80004ec
        0x08000268:    6aa8        .j      LDR      r0,[r5,#0x28]
        0x0800026a:    62a8        .b      STR      r0,[r5,#0x28]
        0x0800026c:    69a0        .i      LDR      r0,[r4,#0x18]
        0x0800026e:    1d00        ..      ADDS     r0,r0,#4
        0x08000270:    61a0        .a      STR      r0,[r4,#0x18]
        0x08000272:    bd70        p.      POP      {r4-r6,pc}
    $d
        0x08000274:    e000ed00    ....    DCD    3758157056
        0x08000278:    67617355    Usag    DCD    1734439765
        0x0800027c:    75614665    eFau    DCD    1969309285
        0x08000280:    485f746c    lt_H    DCD    1214215276
        0x08000284:    6c646e61    andl    DCD    1818521185
        0x08000288:    0d0a7265    er..    DCD    218788453
        0x0800028c:    00000000    ....    DCD    0
        0x08000290:    20203052    R0      DCD    538980434
        0x08000294:    0000203d    = ..    DCD    8253
        0x08000298:    20203152    R1      DCD    538980690
        0x0800029c:    0000203d    = ..    DCD    8253
        0x080002a0:    20203252    R2      DCD    538980946
        0x080002a4:    0000203d    = ..    DCD    8253
        0x080002a8:    20203352    R3      DCD    538981202
        0x080002ac:    0000203d    = ..    DCD    8253
        0x080002b0:    20323152    R12     DCD    540160338
        0x080002b4:    0000203d    = ..    DCD    8253
        0x080002b8:    2020524c    LR      DCD    538989132
        0x080002bc:    0000203d    = ..    DCD    8253
        0x080002c0:    20204350    PC      DCD    538985296
        0x080002c4:    0000203d    = ..    DCD    8253
        0x080002c8:    52535078    xPSR    DCD    1381191800
        0x080002cc:    0000203d    = ..    DCD    8253
    $t
    i.delay
    delay
        0x080002d0:    b501        ..      PUSH     {r0,lr}
        0x080002d2:    bf00        ..      NOP      
        0x080002d4:    9800        ..      LDR      r0,[sp,#0]
        0x080002d6:    1e41        A.      SUBS     r1,r0,#1
        0x080002d8:    9100        ..      STR      r1,[sp,#0]
        0x080002da:    2800        .(      CMP      r0,#0
        0x080002dc:    d1fa        ..      BNE      0x80002d4 ; delay + 4
        0x080002de:    bd08        ..      POP      {r3,pc}
    i.exti_clear_int
    exti_clear_int
        0x080002e0:    4903        .I      LDR      r1,[pc,#12] ; [0x80002f0] = 0x40010400
        0x080002e2:    694a        Ji      LDR      r2,[r1,#0x14]
        0x080002e4:    2301        .#      MOVS     r3,#1
        0x080002e6:    4083        .@      LSLS     r3,r3,r0
        0x080002e8:    431a        .C      ORRS     r2,r2,r3
        0x080002ea:    614a        Ja      STR      r2,[r1,#0x14]
        0x080002ec:    4770        pG      BX       lr
    $d
        0x080002ee:    0000        ..      DCW    0
        0x080002f0:    40010400    ...@    DCD    1073808384
    $t
    i.exti_init
    exti_init
        0x080002f4:    4806        .H      LDR      r0,[pc,#24] ; [0x8000310] = 0x40010400
        0x080002f6:    6881        .h      LDR      r1,[r0,#8]
        0x080002f8:    f0410101    A...    ORR      r1,r1,#1
        0x080002fc:    6081        .`      STR      r1,[r0,#8]
        0x080002fe:    68c1        .h      LDR      r1,[r0,#0xc]
        0x08000300:    f0410101    A...    ORR      r1,r1,#1
        0x08000304:    60c1        .`      STR      r1,[r0,#0xc]
        0x08000306:    6801        .h      LDR      r1,[r0,#0]
        0x08000308:    f0410101    A...    ORR      r1,r1,#1
        0x0800030c:    6001        .`      STR      r1,[r0,#0]
        0x0800030e:    4770        pG      BX       lr
    $d
        0x08000310:    40010400    ...@    DCD    1073808384
    $t
    i.getchar
    getchar
        0x08000314:    4904        .I      LDR      r1,[pc,#16] ; [0x8000328] = 0x40013800
        0x08000316:    bf00        ..      NOP      
        0x08000318:    6808        .h      LDR      r0,[r1,#0]
        0x0800031a:    f0000020    .. .    AND      r0,r0,#0x20
        0x0800031e:    2800        .(      CMP      r0,#0
        0x08000320:    d0fa        ..      BEQ      0x8000318 ; getchar + 4
        0x08000322:    6848        Hh      LDR      r0,[r1,#4]
        0x08000324:    4770        pG      BX       lr
    $d
        0x08000326:    0000        ..      DCW    0
        0x08000328:    40013800    .8.@    DCD    1073821696
    $t
    i.key_init
    key_init
        0x0800032c:    490b        .I      LDR      r1,[pc,#44] ; [0x800035c] = 0x40010000
        0x0800032e:    4a0c        .J      LDR      r2,[pc,#48] ; [0x8000360] = 0x40021018
        0x08000330:    6813        .h      LDR      r3,[r2,#0]
        0x08000332:    f043030c    C...    ORR      r3,r3,#0xc
        0x08000336:    6013        .`      STR      r3,[r2,#0]
        0x08000338:    480a        .H      LDR      r0,[pc,#40] ; [0x8000364] = 0x40010800
        0x0800033a:    6803        .h      LDR      r3,[r0,#0]
        0x0800033c:    f0230303    #...    BIC      r3,r3,#3
        0x08000340:    6003        .`      STR      r3,[r0,#0]
        0x08000342:    6803        .h      LDR      r3,[r0,#0]
        0x08000344:    f023030c    #...    BIC      r3,r3,#0xc
        0x08000348:    6003        .`      STR      r3,[r0,#0]
        0x0800034a:    6803        .h      LDR      r3,[r0,#0]
        0x0800034c:    f0430304    C...    ORR      r3,r3,#4
        0x08000350:    6003        .`      STR      r3,[r0,#0]
        0x08000352:    688b        .h      LDR      r3,[r1,#8]
        0x08000354:    f023030f    #...    BIC      r3,r3,#0xf
        0x08000358:    608b        .`      STR      r3,[r1,#8]
        0x0800035a:    4770        pG      BX       lr
    $d
        0x0800035c:    40010000    ...@    DCD    1073807360
        0x08000360:    40021018    ...@    DCD    1073877016
        0x08000364:    40010800    ...@    DCD    1073809408
    $t
    i.memcpy
    memcpy
        0x08000368:    b570        p.      PUSH     {r4-r6,lr}
        0x0800036a:    4603        .F      MOV      r3,r0
        0x0800036c:    460c        .F      MOV      r4,r1
        0x0800036e:    e003        ..      B        0x8000378 ; memcpy + 16
        0x08000370:    7825        %x      LDRB     r5,[r4,#0]
        0x08000372:    701d        .p      STRB     r5,[r3,#0]
        0x08000374:    1c64        d.      ADDS     r4,r4,#1
        0x08000376:    1c5b        [.      ADDS     r3,r3,#1
        0x08000378:    1e15        ..      SUBS     r5,r2,#0
        0x0800037a:    f1a20201    ....    SUB      r2,r2,#1
        0x0800037e:    d1f7        ..      BNE      0x8000370 ; memcpy + 8
        0x08000380:    bd70        p.      POP      {r4-r6,pc}
    i.memset
    memset
        0x08000382:    b530        0.      PUSH     {r4,r5,lr}
        0x08000384:    4603        .F      MOV      r3,r0
        0x08000386:    e001        ..      B        0x800038c ; memset + 10
        0x08000388:    7019        .p      STRB     r1,[r3,#0]
        0x0800038a:    1c5b        [.      ADDS     r3,r3,#1
        0x0800038c:    1e14        ..      SUBS     r4,r2,#0
        0x0800038e:    f1a20201    ....    SUB      r2,r2,#1
        0x08000392:    d1f9        ..      BNE      0x8000388 ; memset + 6
        0x08000394:    bd30        0.      POP      {r4,r5,pc}
        0x08000396:    0000        ..      MOVS     r0,r0
    i.mymain
    mymain
        0x08000398:    4d27        'M      LDR      r5,[pc,#156] ; [0x8000438] = 0x80004ed
        0x0800039a:    f7ffffc7    ....    BL       key_init ; 0x800032c
        0x0800039e:    f7ffffa9    ....    BL       exti_init ; 0x80002f4
        0x080003a2:    f000f89b    ....    BL       nvic_init ; 0x80004dc
        0x080003a6:    2001        .       MOVS     r0,#1
        0x080003a8:    f7ffff92    ....    BL       delay ; 0x80002d0
        0x080003ac:    2031        1       MOVS     r0,#0x31
        0x080003ae:    f000f8ad    ....    BL       putchar ; 0x800050c
        0x080003b2:    2030        0       MOVS     r0,#0x30
        0x080003b4:    f000f8aa    ....    BL       putchar ; 0x800050c
        0x080003b8:    2030        0       MOVS     r0,#0x30
        0x080003ba:    f000f8a7    ....    BL       putchar ; 0x800050c
        0x080003be:    2061        a       MOVS     r0,#0x61
        0x080003c0:    f000f8a4    ....    BL       putchar ; 0x800050c
        0x080003c4:    2073        s       MOVS     r0,#0x73
        0x080003c6:    f000f8a1    ....    BL       putchar ; 0x800050c
        0x080003ca:    206b        k       MOVS     r0,#0x6b
        0x080003cc:    f000f89e    ....    BL       putchar ; 0x800050c
        0x080003d0:    200a        .       MOVS     r0,#0xa
        0x080003d2:    f000f89b    ....    BL       putchar ; 0x800050c
        0x080003d6:    200d        .       MOVS     r0,#0xd
        0x080003d8:    f000f898    ....    BL       putchar ; 0x800050c
        0x080003dc:    217b        {!      MOVS     r1,#0x7b
        0x080003de:    a017        ..      ADR      r0,{pc}+0x5e ; 0x800043c
        0x080003e0:    47a8        .G      BLX      r5
        0x080003e2:    491c        .I      LDR      r1,[pc,#112] ; [0x8000454] = 0x20000000
        0x080003e4:    a01c        ..      ADR      r0,{pc}+0x74 ; 0x8000458
        0x080003e6:    f000f881    ....    BL       put_s_hex ; 0x80004ec
        0x080003ea:    4920         I      LDR      r1,[pc,#128] ; [0x800046c] = 0x80005d0
        0x080003ec:    a020         .      ADR      r0,{pc}+0x84 ; 0x8000470
        0x080003ee:    f000f87d    ..}.    BL       put_s_hex ; 0x80004ec
        0x080003f2:    4824        $H      LDR      r0,[pc,#144] ; [0x8000484] = 0x20000008
        0x080003f4:    6801        .h      LDR      r1,[r0,#0]
        0x080003f6:    a024        $.      ADR      r0,{pc}+0x92 ; 0x8000488
        0x080003f8:    f000f878    ..x.    BL       put_s_hex ; 0x80004ec
        0x080003fc:    4826        &H      LDR      r0,[pc,#152] ; [0x8000498] = 0x20000014
        0x080003fe:    7801        .x      LDRB     r1,[r0,#0]
        0x08000400:    a026        &.      ADR      r0,{pc}+0x9c ; 0x800049c
        0x08000402:    f000f873    ..s.    BL       put_s_hex ; 0x80004ec
        0x08000406:    4829        )H      LDR      r0,[pc,#164] ; [0x80004ac] = 0x20000020
        0x08000408:    6801        .h      LDR      r1,[r0,#0]
        0x0800040a:    a029        ).      ADR      r0,{pc}+0xa6 ; 0x80004b0
        0x0800040c:    f000f86e    ..n.    BL       put_s_hex ; 0x80004ec
        0x08000410:    4810        .H      LDR      r0,[pc,#64] ; [0x8000454] = 0x20000000
        0x08000412:    7800        .x      LDRB     r0,[r0,#0]
        0x08000414:    f000f87a    ..z.    BL       putchar ; 0x800050c
        0x08000418:    2042        B       MOVS     r0,#0x42
        0x0800041a:    f000f877    ..w.    BL       putchar ; 0x800050c
        0x0800041e:    e009        ..      B        0x8000434 ; mymain + 156
        0x08000420:    f7ffff78    ..x.    BL       getchar ; 0x8000314
        0x08000424:    b2c4        ..      UXTB     r4,r0
        0x08000426:    4620         F      MOV      r0,r4
        0x08000428:    f000f870    ..p.    BL       putchar ; 0x800050c
        0x0800042c:    1c61        a.      ADDS     r1,r4,#1
        0x0800042e:    b2c8        ..      UXTB     r0,r1
        0x08000430:    f000f86c    ..l.    BL       putchar ; 0x800050c
        0x08000434:    e7f4        ..      B        0x8000420 ; mymain + 136
    $d
        0x08000436:    0000        ..      DCW    0
        0x08000438:    080004ed    ....    DCD    134218989
        0x0800043c:    74736574    test    DCD    1953719668
        0x08000440:    726f6620     for    DCD    1919903264
        0x08000444:    78657420     tex    DCD    2019914784
        0x08000448:    65722074    t re    DCD    1701978228
        0x0800044c:    61636f6c    loca    DCD    1633906540
        0x08000450:    00206574    te .    DCD    2123124
        0x08000454:    20000000    ...     DCD    536870912
        0x08000458:    68435f67    g_Ch    DCD    1749245799
        0x0800045c:    73277261    ar's    DCD    1931965025
        0x08000460:    64646120     add    DCD    1684300064
        0x08000464:    3d202072    r  =    DCD    1025515634
        0x08000468:    00000020     ...    DCD    32
        0x0800046c:    080005d0    ....    DCD    134219216
        0x08000470:    68435f67    g_Ch    DCD    1749245799
        0x08000474:    27327261    ar2'    DCD    657617505
        0x08000478:    64612073    s ad    DCD    1684086899
        0x0800047c:    3d207264    dr =    DCD    1025536612
        0x08000480:    00000020     ...    DCD    32
        0x08000484:    20000008    ...     DCD    536870920
        0x08000488:    5b415f67    g_A[    DCD    1531010919
        0x0800048c:    73275d30    0]'s    DCD    1931959600
        0x08000490:    6c617620     val    DCD    1818326560
        0x08000494:    00203d20     = .    DCD    2112800
        0x08000498:    20000014    ...     DCD    536870932
        0x0800049c:    5b425f67    g_B[    DCD    1531076455
        0x080004a0:    73275d30    0]'s    DCD    1931959600
        0x080004a4:    6c617620     val    DCD    1818326560
        0x080004a8:    00203d20     = .    DCD    2112800
        0x080004ac:    20000020     ..     DCD    536870944
        0x080004b0:    5b435f73    s_C[    DCD    1531142003
        0x080004b4:    73275d30    0]'s    DCD    1931959600
        0x080004b8:    6c617620     val    DCD    1818326560
        0x080004bc:    00203d20     = .    DCD    2112800
    $t
    i.nvic_clear_int
    nvic_clear_int
        0x080004c0:    4905        .I      LDR      r1,[pc,#20] ; [0x80004d8] = 0xe000e100
        0x080004c2:    281f        .(      CMP      r0,#0x1f
        0x080004c4:    dc06        ..      BGT      0x80004d4 ; nvic_clear_int + 20
        0x080004c6:    f8d12180    ...!    LDR      r2,[r1,#0x180]
        0x080004ca:    2301        .#      MOVS     r3,#1
        0x080004cc:    4083        .@      LSLS     r3,r3,r0
        0x080004ce:    431a        .C      ORRS     r2,r2,r3
        0x080004d0:    f8c12180    ...!    STR      r2,[r1,#0x180]
        0x080004d4:    4770        pG      BX       lr
    $d
        0x080004d6:    0000        ..      DCW    0
        0x080004d8:    e000e100    ....    DCD    3758153984
    $t
    i.nvic_init
    nvic_init
        0x080004dc:    4802        .H      LDR      r0,[pc,#8] ; [0x80004e8] = 0xe000e100
        0x080004de:    6801        .h      LDR      r1,[r0,#0]
        0x080004e0:    f0410140    A.@.    ORR      r1,r1,#0x40
        0x080004e4:    6001        .`      STR      r1,[r0,#0]
        0x080004e6:    4770        pG      BX       lr
    $d
        0x080004e8:    e000e100    ....    DCD    3758153984
    $t
    i.put_s_hex
    put_s_hex
        0x080004ec:    b570        p.      PUSH     {r4-r6,lr}
        0x080004ee:    4605        .F      MOV      r5,r0
        0x080004f0:    460c        .F      MOV      r4,r1
        0x080004f2:    4628        (F      MOV      r0,r5
        0x080004f4:    f000f838    ..8.    BL       puts ; 0x8000568
        0x080004f8:    4620         F      MOV      r0,r4
        0x080004fa:    f000f813    ....    BL       puthex ; 0x8000524
        0x080004fe:    a002        ..      ADR      r0,{pc}+0xa ; 0x8000508
        0x08000500:    f000f832    ..2.    BL       puts ; 0x8000568
        0x08000504:    bd70        p.      POP      {r4-r6,pc}
    $d
        0x08000506:    0000        ..      DCW    0
        0x08000508:    00000a0d    ....    DCD    2573
    $t
    i.putchar
    putchar
        0x0800050c:    4904        .I      LDR      r1,[pc,#16] ; [0x8000520] = 0x40013800
        0x0800050e:    bf00        ..      NOP      
        0x08000510:    680a        .h      LDR      r2,[r1,#0]
        0x08000512:    f0020280    ....    AND      r2,r2,#0x80
        0x08000516:    2a00        .*      CMP      r2,#0
        0x08000518:    d0fa        ..      BEQ      0x8000510 ; putchar + 4
        0x0800051a:    6048        H`      STR      r0,[r1,#4]
        0x0800051c:    4770        pG      BX       lr
    $d
        0x0800051e:    0000        ..      DCW    0
        0x08000520:    40013800    .8.@    DCD    1073821696
    $t
    i.puthex
    puthex
        0x08000524:    b570        p.      PUSH     {r4-r6,lr}
        0x08000526:    4606        .F      MOV      r6,r0
        0x08000528:    a00e        ..      ADR      r0,{pc}+0x3c ; 0x8000564
        0x0800052a:    f000f81d    ....    BL       puts ; 0x8000568
        0x0800052e:    2507        .%      MOVS     r5,#7
        0x08000530:    e014        ..      B        0x800055c ; puthex + 56
        0x08000532:    00a8        ..      LSLS     r0,r5,#2
        0x08000534:    fa26f000    &...    LSR      r0,r6,r0
        0x08000538:    f000040f    ....    AND      r4,r0,#0xf
        0x0800053c:    2c00        .,      CMP      r4,#0
        0x0800053e:    db07        ..      BLT      0x8000550 ; puthex + 44
        0x08000540:    2c09        .,      CMP      r4,#9
        0x08000542:    dc05        ..      BGT      0x8000550 ; puthex + 44
        0x08000544:    f1040130    ..0.    ADD      r1,r4,#0x30
        0x08000548:    b2c8        ..      UXTB     r0,r1
        0x0800054a:    f7ffffdf    ....    BL       putchar ; 0x800050c
        0x0800054e:    e004        ..      B        0x800055a ; puthex + 54
        0x08000550:    f1040137    ..7.    ADD      r1,r4,#0x37
        0x08000554:    b2c8        ..      UXTB     r0,r1
        0x08000556:    f7ffffd9    ....    BL       putchar ; 0x800050c
        0x0800055a:    1e6d        m.      SUBS     r5,r5,#1
        0x0800055c:    2d00        .-      CMP      r5,#0
        0x0800055e:    dae8        ..      BGE      0x8000532 ; puthex + 14
        0x08000560:    bd70        p.      POP      {r4-r6,pc}
    $d
        0x08000562:    0000        ..      DCW    0
        0x08000564:    00007830    0x..    DCD    30768
    $t
    i.puts
    puts
        0x08000568:    b510        ..      PUSH     {r4,lr}
        0x0800056a:    4604        .F      MOV      r4,r0
        0x0800056c:    e003        ..      B        0x8000576 ; puts + 14
        0x0800056e:    7820         x      LDRB     r0,[r4,#0]
        0x08000570:    f7ffffcc    ....    BL       putchar ; 0x800050c
        0x08000574:    1c64        d.      ADDS     r4,r4,#1
        0x08000576:    7820         x      LDRB     r0,[r4,#0]
        0x08000578:    2800        .(      CMP      r0,#0
        0x0800057a:    d1f8        ..      BNE      0x800056e ; puts + 6
        0x0800057c:    bd10        ..      POP      {r4,pc}
        0x0800057e:    0000        ..      MOVS     r0,r0
    i.uart_init
    uart_init
        0x08000580:    4910        .I      LDR      r1,[pc,#64] ; [0x80005c4] = 0x40013800
        0x08000582:    4811        .H      LDR      r0,[pc,#68] ; [0x80005c8] = 0x40021018
        0x08000584:    6802        .h      LDR      r2,[r0,#0]
        0x08000586:    f2440304    D...    MOV      r3,#0x4004
        0x0800058a:    431a        .C      ORRS     r2,r2,r3
        0x0800058c:    6002        .`      STR      r2,[r0,#0]
        0x0800058e:    480f        .H      LDR      r0,[pc,#60] ; [0x80005cc] = 0x40010804
        0x08000590:    6802        .h      LDR      r2,[r0,#0]
        0x08000592:    f02202f0    "...    BIC      r2,r2,#0xf0
        0x08000596:    6002        .`      STR      r2,[r0,#0]
        0x08000598:    6802        .h      LDR      r2,[r0,#0]
        0x0800059a:    f0420290    B...    ORR      r2,r2,#0x90
        0x0800059e:    6002        .`      STR      r2,[r0,#0]
        0x080005a0:    6802        .h      LDR      r2,[r0,#0]
        0x080005a2:    f4226270    ".pb    BIC      r2,r2,#0xf00
        0x080005a6:    6002        .`      STR      r2,[r0,#0]
        0x080005a8:    6802        .h      LDR      r2,[r0,#0]
        0x080005aa:    f4426280    B..b    ORR      r2,r2,#0x400
        0x080005ae:    6002        .`      STR      r2,[r0,#0]
        0x080005b0:    2245        E"      MOVS     r2,#0x45
        0x080005b2:    608a        .`      STR      r2,[r1,#8]
        0x080005b4:    f242020c    B...    MOV      r2,#0x200c
        0x080005b8:    60ca        .`      STR      r2,[r1,#0xc]
        0x080005ba:    690a        .i      LDR      r2,[r1,#0x10]
        0x080005bc:    f4225240    ".@R    BIC      r2,r2,#0x3000
        0x080005c0:    610a        .a      STR      r2,[r1,#0x10]
        0x080005c2:    4770        pG      BX       lr
    $d
        0x080005c4:    40013800    .8.@    DCD    1073821696
        0x080005c8:    40021018    ...@    DCD    1073877016
        0x080005cc:    40010804    ...@    DCD    1073809412
    $d.realdata
    .constdata
    g_Char2
        0x080005d0:    00000042    B...    DCD    66

** Section #2 'RW_IRAM1' (SHT_PROGBITS) [SHF_ALLOC + SHF_WRITE]
    Size   : 8 bytes (alignment 4)
    Address: 0x20000000


** Section #3 'RW_IRAM1' (SHT_NOBITS) [SHF_ALLOC + SHF_WRITE]
    Size   : 88 bytes (alignment 4)
    Address: 0x20000008


** Section #4 '.debug_abbrev' (SHT_PROGBITS)
    Size   : 1476 bytes


** Section #5 '.debug_frame' (SHT_PROGBITS)
    Size   : 808 bytes


** Section #6 '.debug_info' (SHT_PROGBITS)
    Size   : 12388 bytes


** Section #7 '.debug_line' (SHT_PROGBITS)
    Size   : 2792 bytes


** Section #8 '.debug_loc' (SHT_PROGBITS)
    Size   : 1080 bytes


** Section #9 '.debug_macinfo' (SHT_PROGBITS)
    Size   : 7068 bytes


** Section #10 '.debug_pubnames' (SHT_PROGBITS)
    Size   : 877 bytes


** Section #11 '.symtab' (SHT_SYMTAB)
    Size   : 2160 bytes (alignment 4)
    String table #12 '.strtab'
    Last local symbol no. 94


** Section #12 '.strtab' (SHT_STRTAB)
    Size   : 1148 bytes


** Section #13 '.note' (SHT_NOTE)
    Size   : 28 bytes (alignment 4)


** Section #14 '.comment' (SHT_PROGBITS)
    Size   : 5196 bytes


** Section #15 '.shstrtab' (SHT_STRTAB)
    Size   : 156 bytes


address     size       variable name                            type
0x20000008  0xc        g_A                                      array[3] of int

address     size       variable name                            type
0x20000014  0x9        g_B                                      array[9] of char

address     size       variable name                            type
0x20000000  0x1        g_Char                                   char

address     size       variable name                            type
0x080005d0  0x1        g_Char2                                  const char

